<svg xmlns="http://www.w3.org/2000/svg" width="32" height="32" viewBox="0 0 32 32">
  <path id="linkedin" d="M0,2.292A2.321,2.321,0,0,1,2.35,0h27.3A2.321,2.321,0,0,1,32,2.292V29.708A2.321,2.321,0,0,1,29.65,32H2.35A2.321,2.321,0,0,1,0,29.708Zm9.886,24.5V12.338h-4.8v14.45Zm-2.4-16.424a2.5,2.5,0,1,0,.032-4.992,2.5,2.5,0,1,0-.064,4.992ZM17.3,26.788v-8.07a3.261,3.261,0,0,1,.16-1.172,2.627,2.627,0,0,1,2.464-1.756c1.738,0,2.432,1.324,2.432,3.268v7.73h4.8V18.5c0-4.44-2.368-6.5-5.528-6.5a4.771,4.771,0,0,0-4.33,2.386v.05H17.27l.032-.05V12.338H12.5c.06,1.356,0,14.45,0,14.45Z" fill="#323232"/>
</svg>
