<svg xmlns="http://www.w3.org/2000/svg" width="91.422" height="85.708" viewBox="0 0 91.422 85.708">
  <path id="shop" d="M16.97,3a5.714,5.714,0,0,1,4.343-2h48.8a5.714,5.714,0,0,1,4.343,2L89.359,20.393a8.571,8.571,0,0,1,2.063,5.577v1.457a13.57,13.57,0,0,1-24.284,8.331,13.573,13.573,0,0,1-21.427,0,13.573,13.573,0,0,1-21.427,0A13.57,13.57,0,0,1,0,27.427V25.97a8.571,8.571,0,0,1,2.063-5.576l14.913-17.4ZM27.141,27.427a7.857,7.857,0,0,0,15.713,0,2.857,2.857,0,1,1,5.714,0,7.857,7.857,0,0,0,15.713,0,2.857,2.857,0,1,1,5.714,0,7.857,7.857,0,0,0,15.713,0V25.97a2.857,2.857,0,0,0-.686-1.857L70.109,6.714h-48.8L6.4,24.113a2.857,2.857,0,0,0-.686,1.857v1.457a7.857,7.857,0,0,0,15.713,0,2.857,2.857,0,1,1,5.714,0ZM8.571,43.854a2.857,2.857,0,0,1,2.857,2.857V80.994h5.714V52.425a5.714,5.714,0,0,1,5.714-5.714H40a5.714,5.714,0,0,1,5.714,5.714V80.994H79.994V46.711a2.857,2.857,0,1,1,5.714,0V80.994h2.857a2.857,2.857,0,0,1,0,5.714H2.857a2.857,2.857,0,0,1,0-5.714H5.714V46.711a2.857,2.857,0,0,1,2.857-2.857Zm14.285,37.14H40V52.425H22.855ZM51.425,52.425a5.714,5.714,0,0,1,5.714-5.714H68.566a5.714,5.714,0,0,1,5.714,5.714V69.566a5.714,5.714,0,0,1-5.714,5.714H57.139a5.714,5.714,0,0,1-5.714-5.714Zm17.142,0H57.139V69.566H68.566Z" transform="translate(0 -1)" fill="#5633c1"/>
</svg>
