<svg id="geo-alt" xmlns="http://www.w3.org/2000/svg" width="114" height="152" viewBox="0 0 114 152">
  <path id="Path_1" data-name="Path 1" d="M98.577,84.93a182.645,182.645,0,0,1-18.62,29.165A299.18,299.18,0,0,1,59,138.51,299.074,299.074,0,0,1,38.043,114.1,182.642,182.642,0,0,1,19.423,84.93C14.388,74.736,11.5,65.189,11.5,57a47.5,47.5,0,0,1,95,0c0,8.189-2.9,17.736-7.923,27.93ZM59,152s57-54.017,57-95A57,57,0,1,0,2,57C2,97.983,59,152,59,152Z" transform="translate(-2)" fill="#fff"/>
  <path id="Path_2" data-name="Path 2" d="M33.5,50.5a19,19,0,1,1,19-19A19,19,0,0,1,33.5,50.5Zm0,9.5A28.5,28.5,0,1,0,5,31.5,28.5,28.5,0,0,0,33.5,60Z" transform="translate(23.5 25.5)" fill="#fff"/>
</svg>
