<svg xmlns="http://www.w3.org/2000/svg" width="82.433" height="60.257" viewBox="0 0 82.433 60.257">
  <g id="delivery-truck" transform="translate(0 -68.867)">
    <g id="Group_28" data-name="Group 28" transform="translate(0 68.867)">
      <g id="Group_27" data-name="Group 27" transform="translate(0 0)">
        <path id="Path_28" data-name="Path 28" d="M66.736,88.132h-5.19L63.11,70.179c0-.033,0-.065,0-.1,0,0,0-.005,0-.008h0a1.207,1.207,0,0,0-.728-1.107l-.011-.005c-.027-.011-.055-.021-.083-.03l-.031-.011c-.023-.007-.046-.012-.07-.018l-.049-.012-.063-.01-.059-.008h-.01c-.021,0-.042,0-.063,0l-.042,0H37.193a1.208,1.208,0,1,0,0,2.415h23.4l-2.4,27.592s0,0,0,.006l-.606,6.962H15.62l.7-7.245h7.989a1.208,1.208,0,1,0,0-2.415H16.556l1.482-15.295H30.753a1.208,1.208,0,1,0,0-2.415H18.272l.7-7.191H32.363a1.208,1.208,0,1,0,0-2.415H17.871a1.208,1.208,0,0,0-1.178.953l0,.012c-.006.03-.01.061-.014.092,0,.01,0,.019,0,.029v.006l-.825,8.515H1.208a1.208,1.208,0,1,0,0,2.415h14.4L14.13,96.182H9.822a1.208,1.208,0,0,0,0,2.415H13.9l-.807,8.327v0l-1.248,12.877v.009c0,.017,0,.033,0,.05s0,.044,0,.066c0,0,0,0,0,0,0,.031,0,.062,0,.092,0,.01,0,.02,0,.029,0,.031.009.062.014.093,0,.009,0,.018,0,.027s.011.046.017.068.008.032.012.048l0,.013a1.207,1.207,0,0,0,.287.473l.007.007c.013.013.027.024.04.037a1.2,1.2,0,0,0,.28.192c.021.011.043.022.064.031l.02.007c.03.012.061.024.092.034l.009,0c.036.011.072.02.109.028l.014,0c.035.007.07.012.106.016h0q.059.006.118.006H18.42a9.192,9.192,0,0,0,18.224,0H56.013a9.192,9.192,0,0,0,18.225,0h5.379c.04,0,.08,0,.119-.006l.021,0c.031,0,.063-.008.093-.014l.039-.009.071-.018.047-.015.059-.022.049-.021.053-.025.048-.026.049-.03.045-.03.048-.036.039-.032c.017-.014.032-.029.048-.044l.033-.032c.017-.017.033-.035.049-.053l.026-.029c.018-.022.034-.044.05-.067l.017-.023c.02-.029.038-.06.055-.091l0-.006c.018-.033.035-.068.05-.1,0-.01.007-.021.011-.031s.019-.05.028-.076.009-.034.014-.051.011-.04.015-.061.007-.037.01-.055.006-.032.008-.049c.051-.41,1-8,1.419-12.9,0,0,0-.01,0-.014.122-1.414.2-2.6.2-3.334A15.716,15.716,0,0,0,66.736,88.132Zm-5.4,2.415h4.94l-.631,7.245H60.7Zm-33.8,36.162a6.779,6.779,0,1,1,6.779-6.779A6.787,6.787,0,0,1,27.533,126.709Zm37.592,0a6.779,6.779,0,1,1,6.779-6.779A6.786,6.786,0,0,1,65.125,126.709Zm13.422-7.987h-4.31a9.192,9.192,0,0,0-18.225,0H36.645a9.192,9.192,0,0,0-18.225,0H14.372l1.014-10.466h43.3a1.182,1.182,0,0,0,.12-.006l.022,0c.032,0,.063-.008.094-.014l.04-.01c.024-.006.048-.011.072-.019l.047-.016.06-.022.05-.022.053-.025.049-.027.049-.03.045-.031.047-.035.041-.034.045-.041.036-.036.042-.047.032-.038c.013-.017.026-.034.039-.052l.028-.04c.012-.018.023-.037.034-.056s.017-.028.024-.043.019-.038.028-.058.014-.031.021-.047.014-.038.021-.058.012-.034.018-.052.01-.038.014-.057.01-.038.014-.058.006-.038.009-.058.006-.04.008-.06c0,0,0-.006,0-.009l.605-6.947h6.241c3.7,0,5.368,1.917,7.135,3.947,1.458,1.675,3.085,3.543,5.851,4C79.37,111.866,78.8,116.635,78.548,118.723Zm1.38-12.99c-1.794-.366-2.9-1.627-4.236-3.164-1.673-1.922-3.715-4.267-7.629-4.7l.625-7.172A13.3,13.3,0,0,1,80.018,103.83C80.018,104.283,79.985,104.941,79.927,105.732Z" transform="translate(0 -68.867)" fill="#5633c1"/>
      </g>
    </g>
    <g id="Group_30" data-name="Group 30" transform="translate(23.105 115.503)">
      <g id="Group_29" data-name="Group 29" transform="translate(0 0)">
        <path id="Path_29" data-name="Path 29" d="M147.936,358.524a4.428,4.428,0,1,0,4.428,4.428A4.433,4.433,0,0,0,147.936,358.524Zm0,6.44a2.013,2.013,0,1,1,2.013-2.012A2.015,2.015,0,0,1,147.936,364.964Z" transform="translate(-143.508 -358.524)" fill="#5633c1"/>
      </g>
    </g>
    <g id="Group_32" data-name="Group 32" transform="translate(60.698 115.503)">
      <g id="Group_31" data-name="Group 31" transform="translate(0 0)">
        <path id="Path_30" data-name="Path 30" d="M381.424,358.524a4.428,4.428,0,1,0,4.428,4.428A4.433,4.433,0,0,0,381.424,358.524Zm0,6.44a2.013,2.013,0,1,1,2.013-2.012A2.015,2.015,0,0,1,381.424,364.964Z" transform="translate(-376.996 -358.524)" fill="#5633c1"/>
      </g>
    </g>
    <g id="Group_34" data-name="Group 34" transform="translate(4.32 88.133)">
      <g id="Group_33" data-name="Group 33">
        <path id="Path_31" data-name="Path 31" d="M33.945,188.527h-5.9a1.208,1.208,0,1,0,0,2.415h5.9a1.208,1.208,0,1,0,0-2.415Z" transform="translate(-26.834 -188.527)" fill="#5633c1"/>
      </g>
    </g>
  </g>
</svg>
