<svg id="search-line" xmlns="http://www.w3.org/2000/svg" width="43" height="43" viewBox="0 0 43 43">
  <path id="Path_38" data-name="Path 38" d="M0,0H43V43H0Z" fill="none"/>
  <path id="Path_39" data-name="Path 39" d="M31.765,29.139l7.952,7.95L37.09,39.717l-7.95-7.952a16.714,16.714,0,1,1,2.625-2.625ZM28.04,27.762a12.992,12.992,0,1,0-.279.278l.279-.279Z" transform="translate(0.867 0.867)" fill="#fff"/>
</svg>
